INDEX VERSION 1.4+C:\Users\Adrian\WorkspaceCursoJava\curso-java-2021\WorkspaceSpring\.metadata\.plugins\org.eclipse.wst.jsdt.core\indexes
1609123020.index
1552065987.index
2005247750.index
867564749.index
1329384936.index
102363127.index
3256286623.index
2526324090.index
